rev/EzLogic/EzLogic_tb.vcd
$date
	Sat Dec 21 17:43:02 2024
$end
$version
	Icarus Verilog
$end
$timescale
	1ps
$end
$scope module EzLogic_tb $end
$var wire 336 ! data_std [0:335] $end
$var wire 1 " valid_out $end
$var wire 1 # success $end
$var wire 8 $ data_out [7:0] $end
$var reg 1 % clk $end
$var reg 7 & counter [6:0] $end
$var reg 7 ' counter2 [6:0] $end
$var reg 8 ( data_in [7:0] $end
$var reg 336 ) data_out_all [0:335] $end
$var reg 1 * rst_n $end
$var reg 1 + start $end
$var reg 1 , valid_in $end
$scope begin genblk1[0] $end
$upscope $end
$scope begin genblk1[1] $end
$upscope $end
$scope begin genblk1[2] $end
$upscope $end
$scope begin genblk1[3] $end
$upscope $end
$scope begin genblk1[4] $end
$upscope $end
$scope begin genblk1[5] $end
$upscope $end
$scope begin genblk1[6] $end
$upscope $end
$scope begin genblk1[7] $end
$upscope $end
$scope begin genblk1[8] $end
$upscope $end
$scope begin genblk1[9] $end
$upscope $end
$scope begin genblk1[10] $end
$upscope $end
$scope begin genblk1[11] $end
$upscope $end
$scope begin genblk1[12] $end
$upscope $end
$scope begin genblk1[13] $end
$upscope $end
$scope begin genblk1[14] $end
$upscope $end
$scope begin genblk1[15] $end
$upscope $end
$scope begin genblk1[16] $end
$upscope $end
$scope begin genblk1[17] $end
$upscope $end
$scope begin genblk1[18] $end
$upscope $end
$scope begin genblk1[19] $end
$upscope $end
$scope begin genblk1[20] $end
$upscope $end
$scope begin genblk1[21] $end
$upscope $end
$scope begin genblk1[22] $end
$upscope $end
$scope begin genblk1[23] $end
$upscope $end
$scope begin genblk1[24] $end
$upscope $end
$scope begin genblk1[25] $end
$upscope $end
$scope begin genblk1[26] $end
$upscope $end
$scope begin genblk1[27] $end
$upscope $end
$scope begin genblk1[28] $end
$upscope $end
$scope begin genblk1[29] $end
$upscope $end
$scope begin genblk1[30] $end
$upscope $end
$scope begin genblk1[31] $end
$upscope $end
$scope begin genblk1[32] $end
$upscope $end
$scope begin genblk1[33] $end
$upscope $end
$scope begin genblk1[34] $end
$upscope $end
$scope begin genblk1[35] $end
$upscope $end
$scope begin genblk1[36] $end
$upscope $end
$scope begin genblk1[37] $end
$upscope $end
$scope begin genblk1[38] $end
$upscope $end
$scope begin genblk1[39] $end
$upscope $end
$scope begin genblk1[40] $end
$upscope $end
$scope begin genblk1[41] $end
$upscope $end
$scope module inst $end
$var wire 1 - \<const0> $end
$var wire 1 . \<const1> $end
$var wire 1 % clk $end
$var wire 8 / data_in [7:0] $end
$var wire 1 * rst_n $end
$var wire 1 , valid_in $end
$var wire 1 0 valid_out_OBUF $end
$var wire 1 " valid_out $end
$var wire 1 1 valid_in_IBUF $end
$var wire 1 2 rst_n_IBUF $end
$var wire 8 3 p_0_in [7:0] $end
$var wire 1 4 \data_reg_reg[7]_i_1_n_3 $end
$var wire 1 5 \data_reg_reg[7]_i_1_n_2 $end
$var wire 1 6 \data_reg_reg[7]_i_1_n_1 $end
$var wire 1 7 \data_reg_reg[3]_i_1_n_3 $end
$var wire 1 8 \data_reg_reg[3]_i_1_n_2 $end
$var wire 1 9 \data_reg_reg[3]_i_1_n_1 $end
$var wire 1 : \data_reg_reg[3]_i_1_n_0 $end
$var wire 1 ; \data_reg[7]_i_6_n_0 $end
$var wire 1 < \data_reg[7]_i_5_n_0 $end
$var wire 1 = \data_reg[7]_i_4_n_0 $end
$var wire 1 > \data_reg[7]_i_3_n_0 $end
$var wire 1 ? \data_reg[7]_i_2_n_0 $end
$var wire 1 @ \data_reg[3]_i_5_n_0 $end
$var wire 1 A \data_reg[3]_i_4_n_0 $end
$var wire 1 B \data_reg[3]_i_3_n_0 $end
$var wire 1 C \data_reg[3]_i_2_n_0 $end
$var wire 8 D data_out_OBUF [7:0] $end
$var wire 8 E data_out [7:0] $end
$var wire 8 F data_in_IBUF [7:0] $end
$var wire 1 G clk_IBUF_BUFG $end
$var wire 1 H clk_IBUF $end
$scope module GND $end
$var wire 1 - G $end
$upscope $end
$scope module VCC $end
$var wire 1 . P $end
$upscope $end
$scope module clk_IBUF_BUFG_inst $end
$var wire 1 G O $end
$var wire 1 H I $end
$upscope $end
$scope module clk_IBUF_inst $end
$var wire 1 % I $end
$var wire 1 H O $end
$upscope $end
$scope module data_in_IBUF[0]_inst $end
$var wire 1 I I $end
$var wire 1 J O $end
$upscope $end
$scope module data_in_IBUF[1]_inst $end
$var wire 1 K I $end
$var wire 1 L O $end
$upscope $end
$scope module data_in_IBUF[2]_inst $end
$var wire 1 M I $end
$var wire 1 N O $end
$upscope $end
$scope module data_in_IBUF[3]_inst $end
$var wire 1 O I $end
$var wire 1 P O $end
$upscope $end
$scope module data_in_IBUF[4]_inst $end
$var wire 1 Q I $end
$var wire 1 R O $end
$upscope $end
$scope module data_in_IBUF[5]_inst $end
$var wire 1 S I $end
$var wire 1 T O $end
$upscope $end
$scope module data_in_IBUF[6]_inst $end
$var wire 1 U I $end
$var wire 1 V O $end
$upscope $end
$scope module data_in_IBUF[7]_inst $end
$var wire 1 W I $end
$var wire 1 X O $end
$upscope $end
$scope module data_out_OBUF[0]_inst $end
$var wire 1 Y I $end
$var wire 1 Z O $end
$upscope $end
$scope module data_out_OBUF[1]_inst $end
$var wire 1 [ I $end
$var wire 1 \ O $end
$upscope $end
$scope module data_out_OBUF[2]_inst $end
$var wire 1 ] I $end
$var wire 1 ^ O $end
$upscope $end
$scope module data_out_OBUF[3]_inst $end
$var wire 1 _ I $end
$var wire 1 ` O $end
$upscope $end
$scope module data_out_OBUF[4]_inst $end
$var wire 1 a I $end
$var wire 1 b O $end
$upscope $end
$scope module data_out_OBUF[5]_inst $end
$var wire 1 c I $end
$var wire 1 d O $end
$upscope $end
$scope module data_out_OBUF[6]_inst $end
$var wire 1 e I $end
$var wire 1 f O $end
$upscope $end
$scope module data_out_OBUF[7]_inst $end
$var wire 1 g I $end
$var wire 1 h O $end
$upscope $end
$scope module data_reg[3]_i_2 $end
$var wire 1 i I0 $end
$var wire 1 j I1 $end
$var wire 2 k _w_idx [1:0] $end
$var wire 1 C O $end
$upscope $end
$scope module data_reg[3]_i_3 $end
$var wire 1 l I0 $end
$var wire 1 m I1 $end
$var wire 2 n _w_idx [1:0] $end
$var wire 1 B O $end
$upscope $end
$scope module data_reg[3]_i_4 $end
$var wire 1 o I0 $end
$var wire 1 p I1 $end
$var wire 2 q _w_idx [1:0] $end
$var wire 1 A O $end
$upscope $end
$scope module data_reg[3]_i_5 $end
$var wire 1 r I0 $end
$var wire 1 s I1 $end
$var wire 2 t _w_idx [1:0] $end
$var wire 1 @ O $end
$upscope $end
$scope module data_reg[7]_i_2 $end
$var wire 1 ? O $end
$var wire 1 2 I0 $end
$upscope $end
$scope module data_reg[7]_i_3 $end
$var wire 1 u I0 $end
$var wire 1 v I1 $end
$var wire 2 w _w_idx [1:0] $end
$var wire 1 > O $end
$upscope $end
$scope module data_reg[7]_i_4 $end
$var wire 1 x I0 $end
$var wire 1 y I1 $end
$var wire 2 z _w_idx [1:0] $end
$var wire 1 = O $end
$upscope $end
$scope module data_reg[7]_i_5 $end
$var wire 1 { I0 $end
$var wire 1 | I1 $end
$var wire 2 } _w_idx [1:0] $end
$var wire 1 < O $end
$upscope $end
$scope module data_reg[7]_i_6 $end
$var wire 1 ~ I0 $end
$var wire 1 !" I1 $end
$var wire 2 "" _w_idx [1:0] $end
$var wire 1 ; O $end
$upscope $end
$scope module data_reg_reg[0] $end
$var wire 1 G C $end
$var wire 1 ? CLR $end
$var wire 1 #" D $end
$var wire 1 $" _w_CLR $end
$var wire 1 %" _w_D $end
$var wire 1 &" Q $end
$var wire 1 1 CE $end
$var reg 1 &" _r_Q $end
$scope begin GEN_CLK_POS $end
$upscope $end
$scope begin INIT_STATE $end
$upscope $end
$upscope $end
$scope module data_reg_reg[1] $end
$var wire 1 G C $end
$var wire 1 ? CLR $end
$var wire 1 '" D $end
$var wire 1 (" _w_CLR $end
$var wire 1 )" _w_D $end
$var wire 1 *" Q $end
$var wire 1 1 CE $end
$var reg 1 *" _r_Q $end
$scope begin GEN_CLK_POS $end
$upscope $end
$scope begin INIT_STATE $end
$upscope $end
$upscope $end
$scope module data_reg_reg[2] $end
$var wire 1 G C $end
$var wire 1 ? CLR $end
$var wire 1 +" D $end
$var wire 1 ," _w_CLR $end
$var wire 1 -" _w_D $end
$var wire 1 ." Q $end
$var wire 1 1 CE $end
$var reg 1 ." _r_Q $end
$scope begin GEN_CLK_POS $end
$upscope $end
$scope begin INIT_STATE $end
$upscope $end
$upscope $end
$scope module data_reg_reg[3] $end
$var wire 1 G C $end
$var wire 1 ? CLR $end
$var wire 1 /" D $end
$var wire 1 0" _w_CLR $end
$var wire 1 1" _w_D $end
$var wire 1 2" Q $end
$var wire 1 1 CE $end
$var reg 1 2" _r_Q $end
$scope begin GEN_CLK_POS $end
$upscope $end
$scope begin INIT_STATE $end
$upscope $end
$upscope $end
$scope module data_reg_reg[3]_i_1 $end
$var wire 1 - CI $end
$var wire 1 - CYINIT $end
$var wire 4 3" DI [3:0] $end
$var wire 4 4" O [3:0] $end
$var wire 4 5" S [3:0] $end
$var wire 1 6" _w_CO3 $end
$var wire 1 7" _w_CO2 $end
$var wire 1 8" _w_CO1 $end
$var wire 1 9" _w_CO0 $end
$var wire 4 :" CO [3:0] $end
$upscope $end
$scope module data_reg_reg[4] $end
$var wire 1 G C $end
$var wire 1 ? CLR $end
$var wire 1 ;" D $end
$var wire 1 <" _w_CLR $end
$var wire 1 =" _w_D $end
$var wire 1 >" Q $end
$var wire 1 1 CE $end
$var reg 1 >" _r_Q $end
$scope begin GEN_CLK_POS $end
$upscope $end
$scope begin INIT_STATE $end
$upscope $end
$upscope $end
$scope module data_reg_reg[5] $end
$var wire 1 G C $end
$var wire 1 ? CLR $end
$var wire 1 ?" D $end
$var wire 1 @" _w_CLR $end
$var wire 1 A" _w_D $end
$var wire 1 B" Q $end
$var wire 1 1 CE $end
$var reg 1 B" _r_Q $end
$scope begin GEN_CLK_POS $end
$upscope $end
$scope begin INIT_STATE $end
$upscope $end
$upscope $end
$scope module data_reg_reg[6] $end
$var wire 1 G C $end
$var wire 1 ? CLR $end
$var wire 1 C" D $end
$var wire 1 D" _w_CLR $end
$var wire 1 E" _w_D $end
$var wire 1 F" Q $end
$var wire 1 1 CE $end
$var reg 1 F" _r_Q $end
$scope begin GEN_CLK_POS $end
$upscope $end
$scope begin INIT_STATE $end
$upscope $end
$upscope $end
$scope module data_reg_reg[7] $end
$var wire 1 G C $end
$var wire 1 ? CLR $end
$var wire 1 G" D $end
$var wire 1 H" _w_CLR $end
$var wire 1 I" _w_D $end
$var wire 1 J" Q $end
$var wire 1 1 CE $end
$var reg 1 J" _r_Q $end
$scope begin GEN_CLK_POS $end
$upscope $end
$scope begin INIT_STATE $end
$upscope $end
$upscope $end
$scope module data_reg_reg[7]_i_1 $end
$var wire 1 : CI $end
$var wire 1 - CYINIT $end
$var wire 4 K" DI [3:0] $end
$var wire 4 L" O [3:0] $end
$var wire 4 M" S [3:0] $end
$var wire 1 N" _w_CO3 $end
$var wire 1 O" _w_CO2 $end
$var wire 1 P" _w_CO1 $end
$var wire 1 Q" _w_CO0 $end
$var wire 4 R" CO [3:0] $end
$upscope $end
$scope module rst_n_IBUF_inst $end
$var wire 1 * I $end
$var wire 1 2 O $end
$upscope $end
$scope module valid_in_IBUF_inst $end
$var wire 1 , I $end
$var wire 1 1 O $end
$upscope $end
$scope module valid_out_OBUF_inst $end
$var wire 1 " O $end
$var wire 1 0 I $end
$upscope $end
$scope module valid_out_reg $end
$var wire 1 G C $end
$var wire 1 . CE $end
$var wire 1 ? CLR $end
$var wire 1 1 D $end
$var wire 1 S" _w_CLR $end
$var wire 1 T" _w_D $end
$var wire 1 0 Q $end
$var reg 1 0 _r_Q $end
$scope begin GEN_CLK_POS $end
$upscope $end
$scope begin INIT_STATE $end
$upscope $end
$upscope $end
$upscope $end
$upscope $end
$enddefinitions $end
#0
$dumpvars
0T"
1S"
b0 R"
0Q"
0P"
0O"
0N"
b0 M"
b0 L"
b0 K"
0J"
0I"
1H"
0G"
0F"
0E"
1D"
0C"
0B"
0A"
1@"
0?"
0>"
0="
1<"
0;"
b0 :"
09"
08"
07"
06"
b0 5"
b0 4"
b0 3"
02"
01"
10"
0/"
0."
0-"
1,"
0+"
0*"
0)"
1("
0'"
0&"
0%"
1$"
0#"
b0 ""
0!"
0~
b0 }
0|
0{
b0 z
0y
0x
b0 w
0v
0u
b0 t
0s
0r
b0 q
0p
0o
b0 n
0m
0l
b0 k
0j
0i
0h
0g
0f
0e
0d
0c
0b
0a
0`
0_
0^
0]
0\
0[
0Z
0Y
0X
0W
0V
0U
0T
0S
0R
0Q
0P
0O
0N
0M
0L
0K
0J
0I
0H
0G
b0 F
b0 E
b0 D
0C
0B
0A
0@
1?
0>
0=
0<
0;
0:
09
08
07
06
05
04
b0 3
02
01
00
b0 /
1.
0-
0,
0+
0*
b0 )
b0 (
b0 '
b0 &
0%
b0 $
0#
0"
b1100000111100010011101010101101001001011110010111111100010001110111011001011000101110110011110000101100100000001100110010100111011011011001011001000010111110010010101001010011001100011001110000101111011011100010100001101111000100011011001010010011001010100100110100000001011010010111100111001001100001100001010100101101100011101010011 !
$end
#1000000
1G
1H
1%
#2000000
0G
0H
0%
#3000000
1G
1H
1%
#4000000
0$"
0("
0,"
00"
0<"
0@"
0D"
0H"
0S"
0G
0H
0%
1+
0?
12
1*
#5000000
1A"
1="
1?"
1;"
b110000 3
b11 L"
1;
b10 ""
1!"
b11 M"
1<
b10 }
1|
1T"
1R
1Q
b110000 F
1T
1S
11
1,
b110000 (
b110000 /
b1 &
1G
1H
1%
#6000000
0G
0H
0%
#7000000
11"
1/"
19
17"
18
1E"
1="
17
1:
0-"
0)"
18"
1C"
1;"
19"
b1111 :"
16"
0+"
0'"
b111 L"
b1111000 3
b1000 4"
1s
1A
b10 q
1p
1B
b10 n
1m
1j
0;
b0 ""
0!"
b110 M"
1=
b10 z
1y
0@
b11 t
1r
1b
1a
b1001 3"
b110 5"
0C
b11 k
1i
b110000 $
b110000 E
1d
1c
1J
1I
1L
1K
1N
1M
1P
1O
0R
0Q
b1101111 F
1V
1U
1>"
b110000 D
1B"
1"
10
b1101111 (
b1101111 /
b10 &
1G
1H
1%
#8000000
0G
0H
0%
#9000000
1I"
0:
1-"
16
1G"
0E"
06"
09
1+"
04
15
0C"
07
07"
08
0A"
1="
1O"
11"
0)"
1%"
09"
b0 :"
08"
0Q"
0?"
1;"
b110 R"
1P"
1/"
0'"
1#"
b1001 L"
b10011101 3
b1101 4"
1@
b1 t
0s
0A
b0 q
0p
0m
1C
b1 k
0j
1;
b10 ""
1!"
b10 K"
b101 M"
0<
b11 }
1{
1`
1_
b1101 3"
b1101 5"
1B
b1 n
1l
b1111000 $
b1111000 E
1f
1e
0J
0I
0L
0K
0N
0M
0P
0O
b1110000 F
1R
1Q
12"
b1111000 D
1F"
b1110000 (
b1110000 /
b11 &
b1100000000000000000000000000000000000000000000000000000000000000000000000000000000000000000000000000000000000000000000000000000000000000000000000000000000000000000000000000000000000000000000000000000000000000000000000000000000000000000000000000000000000000000000000000000000000000000000000000000000000000000000000000000000000000000000 )
b1 '
1G
1H
1%
#10000000
0G
0H
0%
#11000000
1)"
1'"
17
18
01"
1-"
0%"
0I"
1E"
19"
b11 :"
18"
0/"
1+"
0#"
0G"
1C"
b1110 R"
1N"
b110 4"
b1010110 3
b101 L"
0@
b11 t
1s
1p
b110 K"
0=
b11 z
1x
1Z
1Y
0A
b11 q
1o
1^
1]
0C
b0 k
0i
0d
0c
b11 3"
b0 5"
0B
b0 n
0l
0f
0e
b1001 M"
1>
b1 w
1u
b10011101 $
b10011101 E
1h
1g
1J
1I
b1110011 F
1L
1K
1&"
1."
0B"
0F"
b10011101 D
1J"
b1100000111100000000000000000000000000000000000000000000000000000000000000000000000000000000000000000000000000000000000000000000000000000000000000000000000000000000000000000000000000000000000000000000000000000000000000000000000000000000000000000000000000000000000000000000000000000000000000000000000000000000000000000000000000000000000 )
b10 '
b1110011 (
b1110011 /
b100 &
1G
1H
1%
#12000000
0G
0H
0%
#13000000
14
15
16
1:
01"
0-"
19
1I"
0E"
0A"
1="
16"
1O"
1Q"
1P"
0/"
0+"
b1111 :"
17"
1G"
0C"
0?"
1;"
b111 R"
0N"
b10 4"
b10010010 3
b1001 L"
1C
b10 k
1j
1=
b10 z
0x
0Z
0Y
0;
b11 ""
1~
1\
1[
b1 K"
1<
b10 }
0{
0`
0_
b111 3"
b1100 5"
1B
b1 n
1l
1f
1e
b110 M"
0>
b0 w
0u
b1010110 $
b1010110 E
0h
0g
b1111011 F
1P
1O
0&"
1*"
02"
1F"
b1010110 D
0J"
b1111011 (
b1111011 /
b101 &
b1100000111100010011101000000000000000000000000000000000000000000000000000000000000000000000000000000000000000000000000000000000000000000000000000000000000000000000000000000000000000000000000000000000000000000000000000000000000000000000000000000000000000000000000000000000000000000000000000000000000000000000000000000000000000000000000 )
b11 '
1G
1H
1%
#14000000
0G
0H
0%
#15000000
06
1E"
05
1C"
1A"
0O"
04
1?"
0P"
0Q"
0:
08
01"
0-"
09
1I"
1="
06"
08"
0/"
0+"
b1 :"
07"
1G"
1;"
b0 R"
0N"
b10 4"
b11110010 3
b1111 L"
0p
0C
b0 k
0j
1;
b1 ""
0!"
0A
b0 q
0o
0^
0]
b1 3"
b0 5"
0B
b0 n
0l
0f
0e
b1111 M"
1>
b1 w
1u
b10010010 $
b10010010 E
1h
1g
0L
0K
0P
0O
b1100001 F
0R
0Q
0."
0F"
b10010010 D
1J"
b1100000111100010011101010101100000000000000000000000000000000000000000000000000000000000000000000000000000000000000000000000000000000000000000000000000000000000000000000000000000000000000000000000000000000000000000000000000000000000000000000000000000000000000000000000000000000000000000000000000000000000000000000000000000000000000000 )
b100 '
b1100001 (
b1100001 /
b110 &
1G
1H
1%
#16000000
0G
0H
0%
#17000000
11"
1-"
1/"
1+"
b11111110 3
b1110 4"
1C
b1 k
1i
1d
1c
b1101 3"
b1100 5"
1B
b1 n
1l
b11110010 $
b11110010 E
1f
1e
1B"
b11110010 D
1F"
b111 &
b1100000111100010011101010101101001001000000000000000000000000000000000000000000000000000000000000000000000000000000000000000000000000000000000000000000000000000000000000000000000000000000000000000000000000000000000000000000000000000000000000000000000000000000000000000000000000000000000000000000000000000000000000000000000000000000000 )
b101 '
1G
1H
1%
#18000000
0G
0H
0%
#19000000
14
0="
0;"
1Q"
0I"
01"
16
0G"
0E"
1:
0/"
1N"
15
0C"
07
16"
19
0-"
1)"
1%"
08
1A"
1O"
09"
17"
0+"
1'"
1#"
b1100 :"
08"
1?"
b1111 R"
1P"
b11 4"
b100011 3
b10 L"
1@
b1 t
0s
0B
b11 n
1m
b1111 3"
b1011 5"
1A
b1 q
1o
1^
1]
b11 K"
b1101 M"
0<
b11 }
1{
b11111110 $
b11111110 E
1`
1_
0J
0I
b1100100 F
1N
1M
1."
b11111110 D
12"
b1100000111100010011101010101101001001011110010000000000000000000000000000000000000000000000000000000000000000000000000000000000000000000000000000000000000000000000000000000000000000000000000000000000000000000000000000000000000000000000000000000000000000000000000000000000000000000000000000000000000000000000000000000000000000000000000 )
b110 '
b1100100 (
b1100100 /
b1000 &
1G
1H
1%
#20000000
0G
0H
0%
#21000000
05
04
1="
0P"
1;"
0Q"
11"
0:
1/"
06"
09
b1011 4"
1I"
0E"
1A"
b0 :"
07"
1G"
0C"
1?"
b100 R"
0N"
b10111011 3
b1011 L"
1s
1p
0m
0=
b11 z
1x
1Z
1Y
1A
b10 q
0o
0^
0]
b101 K"
1<
b10 }
0{
0`
0_
1@
b10 t
0r
0b
0a
b1000 3"
b1011 5"
0B
b0 n
0l
0f
0e
b11 M"
0>
b0 w
0u
b100011 $
b100011 E
0h
0g
1J
1I
1L
1K
b1100011 F
0N
0M
1&"
0."
02"
0>"
0F"
b100011 D
0J"
b1100011 (
b1100011 /
b1001 &
b1100000111100010011101010101101001001011110010111111100000000000000000000000000000000000000000000000000000000000000000000000000000000000000000000000000000000000000000000000000000000000000000000000000000000000000000000000000000000000000000000000000000000000000000000000000000000000000000000000000000000000000000000000000000000000000000 )
b111 '
1G
1H
1%
#22000000
0G
0H
0%
#23000000
1-"
1+"
0)"
14
15
18
0'"
0%"
18"
17
0I"
0E"
1A"
0="
1Q"
1P"
0#"
b11 :"
19"
0G"
0C"
1?"
0;"
b1111 R"
1N"
b1100 4"
b101100 3
b10 L"
0;
b11 ""
1!"
1=
b1 z
0y
b111 K"
0<
b11 }
1{
1`
1_
b1001 3"
b1010 5"
0@
b11 t
1r
1b
1a
b1100 M"
1>
b1 w
1u
b10111011 $
b10111011 E
1h
1g
1R
1Q
b110011 F
0V
0U
12"
1>"
b10111011 D
1J"
b1100000111100010011101010101101001001011110010111111100010001100000000000000000000000000000000000000000000000000000000000000000000000000000000000000000000000000000000000000000000000000000000000000000000000000000000000000000000000000000000000000000000000000000000000000000000000000000000000000000000000000000000000000000000000000000000 )
b1000 '
b110011 (
b110011 /
b1010 &
1G
1H
1%
#24000000
0G
0H
0%
#25000000
0A"
04
06
0?"
0)"
1%"
07
0I"
1E"
1="
0O"
0Q"
0'"
1#"
b10 :"
09"
0G"
1C"
1;"
b10 R"
0N"
b1101 4"
b1011101 3
b101 L"
0=
b0 z
0x
0Z
0Y
b10 K"
1;
b10 ""
0~
0\
0[
0A
b11 q
1o
1^
1]
b1010 3"
b1001 5"
1@
b10 t
0r
0b
0a
b1 M"
0>
b0 w
0u
b101100 $
b101100 E
0h
0g
0&"
0*"
1."
0>"
b101100 D
0J"
b1011 &
b1100000111100010011101010101101001001011110010111111100010001110111011000000000000000000000000000000000000000000000000000000000000000000000000000000000000000000000000000000000000000000000000000000000000000000000000000000000000000000000000000000000000000000000000000000000000000000000000000000000000000000000000000000000000000000000000 )
b1001 '
1G
1H
1%
#26000000
0G
0H
0%
#27000000
1I"
1)"
16
1G"
1'"
0E"
17
19
11"
0%"
0C"
b110 R"
1O"
19"
b111 :"
17"
1/"
0#"
b1001 L"
b10011110 3
b1110 4"
1m
b110 K"
b101 M"
1=
b1 z
1x
1Z
1Y
0@
b11 t
1r
1b
1a
0C
b0 k
0i
0d
0c
b111 3"
b0 5"
0B
b11 n
1l
b1011101 $
b1011101 E
1f
1e
b110111 F
1N
1M
1&"
1>"
0B"
b1011101 D
1F"
b1100000111100010011101010101101001001011110010111111100010001110111011001011000000000000000000000000000000000000000000000000000000000000000000000000000000000000000000000000000000000000000000000000000000000000000000000000000000000000000000000000000000000000000000000000000000000000000000000000000000000000000000000000000000000000000000 )
b1010 '
b110111 (
b110111 /
b1100 &
1G
1H
1%
#28000000
0G
0H
0%
#29000000
01"
0/"
09
b110 4"
0I"
b11 :"
07"
0G"
b1110 R"
1N"
b10110 3
b1 L"
0m
0!"
1y
1=
b10 z
0x
0Z
0Y
b11 K"
1;
b1 ""
1~
1\
1[
b11 3"
b0 5"
0B
b0 n
0l
0f
0e
b1101 M"
1>
b1 w
1u
b10011110 $
b10011110 E
1h
1g
0N
0M
0R
0Q
b1100011 F
1V
1U
0&"
1*"
0F"
b10011110 D
1J"
b1100011 (
b1100011 /
b1101 &
b1100000111100010011101010101101001001011110010111111100010001110111011001011000101110100000000000000000000000000000000000000000000000000000000000000000000000000000000000000000000000000000000000000000000000000000000000000000000000000000000000000000000000000000000000000000000000000000000000000000000000000000000000000000000000000000000 )
b1011 '
1G
1H
1%
#30000000
0G
0H
0%
#31000000
14
0="
0;"
1Q"
1:
15
06
16"
19
01"
0-"
0)"
0I"
1E"
0A"
b1111 :"
17"
0/"
0+"
0'"
0O"
1P"
0G"
1C"
0?"
b11 R"
0N"
b0 4"
b1000000 3
b100 L"
1A
b1 q
0p
1B
b10 n
1m
b1110 5"
1C
b10 k
1j
0=
b0 z
0y
b1 K"
1<
b10 }
0{
0`
0_
b11 M"
0>
b0 w
0u
b10110 $
b10110 E
0h
0g
0L
0K
1N
1M
1P
1O
b101101 F
0V
0U
02"
b10110 D
0J"
b1100000111100010011101010101101001001011110010111111100010001110111011001011000101110110011110000000000000000000000000000000000000000000000000000000000000000000000000000000000000000000000000000000000000000000000000000000000000000000000000000000000000000000000000000000000000000000000000000000000000000000000000000000000000000000000000 )
b1100 '
b101101 (
b101101 /
b1110 &
1G
1H
1%
#32000000
0G
0H
0%
#33000000
1-"
05
0I"
1A"
09
1+"
1)"
04
06
0G"
1?"
07"
08
1'"
0:
1E"
0="
0P"
08"
07
01"
06"
0O"
1C"
0;"
b0 R"
0Q"
b0 :"
09"
0/"
b110 L"
b1100110 3
b110 4"
0s
1p
0m
0C
b0 k
0j
1=
b10 z
1y
b0 K"
b110 M"
0;
b0 ""
0~
0\
0[
1A
b10 q
0o
0^
0]
0@
b0 t
0r
0b
0a
b100 3"
b110 5"
1B
b1 n
1l
b1000000 $
b1000000 E
1f
1e
0J
0I
1L
1K
0N
0M
0P
0O
b1100010 F
1V
1U
0*"
0."
0>"
b1000000 D
1F"
b1100010 (
b1100010 /
b1111 &
b1100000111100010011101010101101001001011110010111111100010001110111011001011000101110110011110000101100000000000000000000000000000000000000000000000000000000000000000000000000000000000000000000000000000000000000000000000000000000000000000000000000000000000000000000000000000000000000000000000000000000000000000000000000000000000000000 )
b1101 '
1G
1H
1%
#34000000
0G
0H
0%
#35000000
1="
1;"
15
0A"
1:
14
0?"
16"
19
1P"
1E"
01"
0-"
1%"
b1100 :"
17"
b11 R"
1Q"
1C"
0/"
0+"
1#"
b101 L"
b1010011 3
b11 4"
1@
b10 t
1s
0p
0B
b11 n
1m
1!"
0=
b0 z
0y
b1 K"
b10 M"
0;
b11 ""
1~
1\
1[
1A
b1 q
1o
1^
1]
b1110 3"
b1011 5"
1C
b1 k
1i
b1100110 $
b1100110 E
1d
1c
1J
1I
0L
0K
1N
1M
1R
1Q
b110101 F
0V
0U
1*"
1."
b1100110 D
1B"
b1100000111100010011101010101101001001011110010111111100010001110111011001011000101110110011110000101100100000000000000000000000000000000000000000000000000000000000000000000000000000000000000000000000000000000000000000000000000000000000000000000000000000000000000000000000000000000000000000000000000000000000000000000000000000000000000 )
b1110 '
b110101 (
b110101 /
b10000 &
1G
1H
1%
#36000000
0G
0H
0%
#37000000
0E"
05
0C"
1A"
04
1?"
0P"
1I"
0Q"
16
1G"
09
1="
17
01"
1-"
1)"
0%"
0:
07"
b100 R"
1O"
1;"
19"
0/"
1+"
1'"
0#"
b1 :"
06"
b1011 L"
b10110110 3
b110 4"
1B
b1 n
0m
1;
b1 ""
0!"
1y
b101 K"
b11 M"
0=
b11 z
1x
1Z
1Y
0A
b0 q
0o
0^
0]
0@
b11 t
1r
1b
1a
b101 3"
b100 5"
0C
b0 k
0i
b1010011 $
b1010011 E
0d
0c
0N
0M
0R
0Q
b1100001 F
1V
1U
1&"
0."
1>"
b1010011 D
0B"
b1100001 (
b1100001 /
b10001 &
b1100000111100010011101010101101001001011110010111111100010001110111011001011000101110110011110000101100100000001100110000000000000000000000000000000000000000000000000000000000000000000000000000000000000000000000000000000000000000000000000000000000000000000000000000000000000000000000000000000000000000000000000000000000000000000000000 )
b1111 '
1G
1H
1%
#38000000
0G
0H
0%
#39000000
1E"
15
1C"
0A"
14
06
0?"
07
1P"
08
11"
0-"
1)"
1%"
1I"
0="
09"
1Q"
0O"
b0 :"
08"
1/"
0+"
1'"
1#"
1G"
0;"
b11 R"
0N"
b1011 4"
b11001011 3
b1100 L"
1@
b1 t
0s
0;
b11 ""
1!"
0y
b1 K"
0=
b0 z
0x
0Z
0Y
1A
b1 q
1o
1^
1]
1C
b1 k
1i
1d
1c
b1011 3"
b1011 5"
0B
b0 n
0l
0f
0e
b1010 M"
1>
b1 w
1u
b10110110 $
b10110110 E
1h
1g
0J
0I
1R
1Q
b110000 F
0V
0U
0&"
1."
1B"
0F"
b10110110 D
1J"
b1100000111100010011101010101101001001011110010111111100010001110111011001011000101110110011110000101100100000001100110010100110000000000000000000000000000000000000000000000000000000000000000000000000000000000000000000000000000000000000000000000000000000000000000000000000000000000000000000000000000000000000000000000000000000000000000 )
b10000 '
b110000 (
b110000 /
b10010 &
1G
1H
1%
#40000000
0G
0H
0%
#41000000
0I"
01"
14
16
0G"
1:
0/"
1N"
0E"
1A"
0="
16"
19
0)"
1Q"
b1111 R"
1O"
0C"
1?"
0;"
b1100 :"
17"
0'"
b10 L"
b100001 3
b1 4"
1s
1m
1j
1;
b1 ""
0!"
1=
b1 z
1x
1Z
1Y
0A
b0 q
0o
0^
0]
b111 K"
b1101 M"
0<
b11 }
1{
1`
1_
1@
b10 t
0r
0b
0a
1C
b10 k
0i
0d
0c
b100 3"
b1001 5"
0B
b11 n
1l
b11001011 $
b11001011 E
1f
1e
1J
1I
1N
1M
1P
1O
b101101 F
0R
0Q
1&"
0."
12"
0>"
0B"
b11001011 D
1F"
b101101 (
b101101 /
b10011 &
b1100000111100010011101010101101001001011110010111111100010001110111011001011000101110110011110000101100100000001100110010100111011011000000000000000000000000000000000000000000000000000000000000000000000000000000000000000000000000000000000000000000000000000000000000000000000000000000000000000000000000000000000000000000000000000000000 )
b10001 '
1G
1H
1%
#42000000
0G
0H
0%
